{
    "items": [
        {
            "id": 1,
            "name": "Item 1",
            "description": "Description of Item 1"
        },
        {
            "id": 2,
            "name": "Item 2",
            "description": "Description of Item 2"
        },
        {
            "rollno": 108,
            "name": "bob",
            "city": "mumbai"
        },
        {
            "name": "ashutosh"
        },
        {
            "name": "rutvik"
        },
        {
            "name": "sanket",
            "no": 1
        },
        {
            "name": "sanket",
            "no": 2
        },
        {
            "name": "rutvik"
        },
        {
            "name": "advait"
        },
        {
            "name": "ram"
        },
        {
            "name": "rutvik"
        }
    ]
}